…
``` r
# change gapminder's country names to corresponding iso2c codes,
# Then merge with countryInfo
countryData <- gapminder %>%
  mutate(country = countrycode(sourcevar = country,
                               origin = "country.name",
                               destination = "iso2c")) %>%
  left_join(countryInfo, by = c("country" = "countryCode")) %>%
  mutate(areaInSqKm = as.numeric(areaInSqKm)) # Convert area to numeric

countryData
```

    ## # A tibble: 1,704 × 23
    ##    country continent.x  year lifeExp      pop gdpPercap continent.y capital
    ##    <chr>   <fct>       <int>   <dbl>    <int>     <dbl> <chr>       <chr>  
    ##  1 AF      Asia         1952    28.8  8425333      779. AS          Kabul  
    ##  2 AF      Asia         1957    30.3  9240934      821. AS          Kabul  
    ##  3 AF      Asia         1962    32.0 10267083      853. AS          Kabul  
    ##  4 AF      Asia         1967    34.0 11537966      836. AS          Kabul  
    ##  5 AF      Asia         1972    36.1 13079460      740. AS          Kabul  
    ##  6 AF      Asia         1977    38.4 14880372      786. AS          Kabul  
    ##  7 AF      Asia         1982    39.9 12881816      978. AS          Kabul  
    ##  8 AF      Asia         1987    40.8 13867957      852. AS          Kabul  
    ##  9 AF      Asia         1992    41.7 16317921      649. AS          Kabul  
    ## 10 AF      Asia         1997    41.8 22227415      635. AS          Kabul  
    ## # … with 1,694 more rows, and 15 more variables: languages <chr>,
    ## #   geonameId <chr>, south <chr>, isoAlpha3 <chr>, north <chr>, fipsCode <chr>,
    ## #   population <chr>, east <chr>, isoNumeric <chr>, areaInSqKm <dbl>,
    ## #   west <chr>, countryName <chr>, postalCodeFormat <chr>, continentName <chr>,
    ## #   currencyCode <chr>

### 3. Calculate the population density for each observation

``` r
pop_density <- countryData %>%
  mutate(popDensity = pop / areaInSqKm) # Use gapminder's population statistic

pop_density
```

    ## # A tibble: 1,704 × 24
    ##    country continent.x  year lifeExp      pop gdpPercap continent.y capital
    ##    <chr>   <fct>       <int>   <dbl>    <int>     <dbl> <chr>       <chr>  
    ##  1 AF      Asia         1952    28.8  8425333      779. AS          Kabul  
    ##  2 AF      Asia         1957    30.3  9240934      821. AS          Kabul  
    ##  3 AF      Asia         1962    32.0 10267083      853. AS          Kabul  
    ##  4 AF      Asia         1967    34.0 11537966      836. AS          Kabul  
    ##  5 AF      Asia         1972    36.1 13079460      740. AS          Kabul  
    ##  6 AF      Asia         1977    38.4 14880372      786. AS          Kabul  
    ##  7 AF      Asia         1982    39.9 12881816      978. AS          Kabul  
    ##  8 AF      Asia         1987    40.8 13867957      852. AS          Kabul  
    ##  9 AF      Asia         1992    41.7 16317921      649. AS          Kabul  
    ## 10 AF      Asia         1997    41.8 22227415      635. AS          Kabul  
    ## # … with 1,694 more rows, and 16 more variables: languages <chr>,
    ## #   geonameId <chr>, south <chr>, isoAlpha3 <chr>, north <chr>, fipsCode <chr>,
    ## #   population <chr>, east <chr>, isoNumeric <chr>, areaInSqKm <dbl>,
    ## #   west <chr>, countryName <chr>, postalCodeFormat <chr>, continentName <chr>,
    ## #   currencyCode <chr>, popDensity <dbl>
…
